{
  "formatVersion": 1,
  "database": {
    "version": 1,
    "identityHash": "44ea4a673b9910db7d6c27c79fe219a6",
    "entities": [
      {
        "tableName": "Bank",
        "createSql": "CREATE TABLE IF NOT EXISTS `${TABLE_NAME}` (`id` INTEGER PRIMARY KEY AUTOINCREMENT, `name` TEXT NOT NULL, `position` INTEGER NOT NULL)",
        "fields": [
          {
            "fieldPath": "id",
            "columnName": "id",
            "affinity": "INTEGER",
            "notNull": false
          },
          {
            "fieldPath": "name",
            "columnName": "name",
            "affinity": "TEXT",
            "notNull": true
          },
          {
            "fieldPath": "position",
            "columnName": "position",
            "affinity": "INTEGER",
            "notNull": true
          }
        ],
        "primaryKey": {
          "columnNames": [
            "id"
          ],
          "autoGenerate": true
        },
        "indices": [],
        "foreignKeys": []
      },
      {
        "tableName": "Card",
        "createSql": "CREATE TABLE IF NOT EXISTS `${TABLE_NAME}` (`id` INTEGER PRIMARY KEY AUTOINCREMENT, `bank_id` INTEGER NOT NULL, `name` TEXT NOT NULL, `number` INTEGER, `expiration` TEXT, `ccv` INTEGER, FOREIGN KEY(`bank_id`) REFERENCES `Bank`(`id`) ON UPDATE NO ACTION ON DELETE CASCADE )",
        "fields": [
          {
            "fieldPath": "id",
            "columnName": "id",
            "affinity": "INTEGER",
            "notNull": false
          },
          {
            "fieldPath": "bankId",
            "columnName": "bank_id",
            "affinity": "INTEGER",
            "notNull": true
          },
          {
            "fieldPath": "name",
            "columnName": "name",
            "affinity": "TEXT",
            "notNull": true
          },
          {
            "fieldPath": "number",
            "columnName": "number",
            "affinity": "INTEGER",
            "notNull": false
          },
          {
            "fieldPath": "expiration",
            "columnName": "expiration",
            "affinity": "TEXT",
            "notNull": false
          },
          {
            "fieldPath": "ccv",
            "columnName": "ccv",
            "affinity": "INTEGER",
            "notNull": false
          }
        ],
        "primaryKey": {
          "columnNames": [
            "id"
          ],
          "autoGenerate": true
        },
        "indices": [
          {
            "name": "bank_id_index",
            "unique": false,
            "columnNames": [
              "bank_id"
            ],
            "createSql": "CREATE INDEX IF NOT EXISTS `bank_id_index` ON `${TABLE_NAME}` (`bank_id`)"
          }
        ],
        "foreignKeys": [
          {
            "table": "Bank",
            "onDelete": "CASCADE",
            "onUpdate": "NO ACTION",
            "columns": [
              "bank_id"
            ],
            "referencedColumns": [
              "id"
            ]
          }
        ]
      }
    ],
    "views": [],
    "setupQueries": [
      "CREATE TABLE IF NOT EXISTS room_master_table (id INTEGER PRIMARY KEY,identity_hash TEXT)",
      "INSERT OR REPLACE INTO room_master_table (id,identity_hash) VALUES(42, '44ea4a673b9910db7d6c27c79fe219a6')"
    ]
  }
}